Tarea5/Registro4B/Verificador.vcd
$date
	Tue May 15 00:53:34 2018
$end
$version
	Icarus Verilog
$end
$timescale
	1ps
$end
$scope module BUF $end
$var wire 1 ! A $end
$var wire 1 " Y $end
$upscope $end
$scope module DFFSR $end
$var wire 1 # C $end
$var wire 1 $ D $end
$var wire 1 % R $end
$var wire 1 & S $end
$var reg 1 ' Q $end
$upscope $end
$scope module VTB $end
$var wire 1 ( SOC $end
$var wire 1 ) SR $end
$var wire 1 * S_IN $end
$var wire 1 + SOR $end
$var wire 1 , SOE $end
$var wire 1 - SO $end
$var wire 1 . QR $end
$var wire 4 / QE [3:0] $end
$var wire 4 0 QC [3:0] $end
$var wire 2 1 MODE [1:0] $end
$var wire 1 2 ENB $end
$var wire 1 3 DIR $end
$var wire 4 4 D [3:0] $end
$var wire 1 5 CLK $end
$scope module RC $end
$var wire 1 * s_in $end
$var wire 2 6 mode [1:0] $end
$var wire 1 2 enb $end
$var wire 1 3 dir $end
$var wire 4 7 d [3:0] $end
$var wire 1 5 clk $end
$var reg 4 8 q [3:0] $end
$var reg 1 - s_out $end
$upscope $end
$scope module RE $end
$var wire 1 , s_out $end
$var wire 1 * s_in $end
$var wire 4 9 q [3:0] $end
$var wire 2 : mode [1:0] $end
$var wire 1 2 enb $end
$var wire 1 3 dir $end
$var wire 4 ; d [3:0] $end
$var wire 1 5 clk $end
$var wire 1 < _066_ $end
$var wire 1 = _065_ $end
$var wire 1 > _064_ $end
$var wire 1 ? _063_ $end
$var wire 1 @ _062_ $end
$var wire 1 A _061_ $end
$var wire 1 B _060_ $end
$var wire 1 C _059_ $end
$var wire 1 D _058_ $end
$var wire 1 E _057_ $end
$var wire 1 F _056_ $end
$var wire 1 G _055_ $end
$var wire 1 H _054_ $end
$var wire 1 I _053_ $end
$var wire 1 J _052_ $end
$var wire 1 K _051_ $end
$var wire 1 L _050_ $end
$var wire 1 M _049_ $end
$var wire 1 N _048_ $end
$var wire 1 O _047_ $end
$var wire 1 P _046_ $end
$var wire 1 Q _045_ $end
$var wire 1 R _044_ $end
$var wire 1 S _043_ $end
$var wire 1 T _042_ $end
$var wire 1 U _041_ $end
$var wire 1 V _040_ $end
$var wire 1 W _039_ $end
$var wire 1 X _038_ $end
$var wire 1 Y _037_ $end
$var wire 1 Z _036_ $end
$var wire 1 [ _035_ $end
$var wire 1 \ _034_ $end
$var wire 1 ] _033_ $end
$var wire 1 ^ _032_ $end
$var wire 1 _ _031_ $end
$var wire 1 ` _030_ $end
$var wire 1 a _029_ $end
$var wire 1 b _028_ $end
$var wire 1 c _027_ $end
$var wire 1 d _026_ $end
$var wire 1 e _025_ $end
$var wire 1 f _024_ $end
$var wire 1 g _023_ $end
$var wire 1 h _022_ $end
$var wire 1 i _021_ $end
$var wire 1 j _020_ $end
$var wire 1 k _019_ $end
$var wire 1 l _018_ $end
$var wire 1 m _017_ $end
$var wire 1 n _016_ $end
$var wire 1 o _015_ $end
$var wire 1 p _014_ $end
$var wire 1 q _013_ $end
$var wire 1 r _012_ $end
$var wire 1 s _011_ $end
$var wire 1 t _010_ $end
$var wire 1 u _009_ $end
$var wire 1 v _008_ $end
$var wire 1 w _007_ $end
$var wire 1 x _006_ $end
$var wire 1 y _005_ $end
$var wire 1 z _004_ $end
$var wire 1 { _003_ $end
$var wire 1 | _002_ $end
$var wire 1 } _001_ $end
$var wire 4 ~ _000_ [3:0] $end
$scope module _067_ $end
$var wire 1 | Y $end
$var wire 1 2 A $end
$upscope $end
$scope module _068_ $end
$var wire 1 !" A $end
$var wire 1 { Y $end
$upscope $end
$scope module _069_ $end
$var wire 1 "" A $end
$var wire 1 z Y $end
$upscope $end
$scope module _070_ $end
$var wire 1 z A $end
$var wire 1 { B $end
$var wire 1 y Y $end
$upscope $end
$scope module _071_ $end
$var wire 1 y A $end
$var wire 1 | B $end
$var wire 1 x Y $end
$upscope $end
$scope module _072_ $end
$var wire 1 x A $end
$var wire 1 w Y $end
$upscope $end
$scope module _073_ $end
$var wire 1 w A $end
$var wire 1 v Y $end
$var wire 1 , B $end
$upscope $end
$scope module _074_ $end
$var wire 1 u Y $end
$var wire 1 3 A $end
$upscope $end
$scope module _075_ $end
$var wire 1 u A $end
$var wire 1 #" B $end
$var wire 1 t Y $end
$upscope $end
$scope module _076_ $end
$var wire 1 $" B $end
$var wire 1 s Y $end
$var wire 1 3 A $end
$upscope $end
$scope module _077_ $end
$var wire 1 s A $end
$var wire 1 t B $end
$var wire 1 r Y $end
$upscope $end
$scope module _078_ $end
$var wire 1 %" A $end
$var wire 1 &" B $end
$var wire 1 q Y $end
$upscope $end
$scope module _079_ $end
$var wire 1 q A $end
$var wire 1 p Y $end
$upscope $end
$scope module _080_ $end
$var wire 1 p A $end
$var wire 1 | B $end
$var wire 1 o Y $end
$upscope $end
$scope module _081_ $end
$var wire 1 o A $end
$var wire 1 r B $end
$var wire 1 n Y $end
$upscope $end
$scope module _082_ $end
$var wire 1 n A $end
$var wire 1 v B $end
$var wire 1 } Y $end
$upscope $end
$scope module _083_ $end
$var wire 1 | A $end
$var wire 1 '" B $end
$var wire 1 m Y $end
$upscope $end
$scope module _084_ $end
$var wire 1 (" A $end
$var wire 1 { B $end
$var wire 1 l Y $end
$upscope $end
$scope module _085_ $end
$var wire 1 )" A $end
$var wire 1 k Y $end
$var wire 1 3 B $end
$upscope $end
$scope module _086_ $end
$var wire 1 k A $end
$var wire 1 t B $end
$var wire 1 j Y $end
$upscope $end
$scope module _087_ $end
$var wire 1 j A $end
$var wire 1 l B $end
$var wire 1 i Y $end
$upscope $end
$scope module _088_ $end
$var wire 1 *" A $end
$var wire 1 h Y $end
$upscope $end
$scope module _089_ $end
$var wire 1 z A $end
$var wire 1 +" B $end
$var wire 1 g Y $end
$upscope $end
$scope module _090_ $end
$var wire 1 g A $end
$var wire 1 h B $end
$var wire 1 f Y $end
$upscope $end
$scope module _091_ $end
$var wire 1 ," A $end
$var wire 1 -" B $end
$var wire 1 e Y $end
$upscope $end
$scope module _092_ $end
$var wire 1 e A $end
$var wire 1 ." B $end
$var wire 1 d Y $end
$upscope $end
$scope module _093_ $end
$var wire 1 d A $end
$var wire 1 f B $end
$var wire 1 c Y $end
$upscope $end
$scope module _094_ $end
$var wire 1 c A $end
$var wire 1 i B $end
$var wire 1 b Y $end
$upscope $end
$scope module _095_ $end
$var wire 1 a Y $end
$var wire 1 * A $end
$upscope $end
$scope module _096_ $end
$var wire 1 a A $end
$var wire 1 ` Y $end
$var wire 1 3 B $end
$upscope $end
$scope module _097_ $end
$var wire 1 k A $end
$var wire 1 q B $end
$var wire 1 _ Y $end
$upscope $end
$scope module _098_ $end
$var wire 1 _ A $end
$var wire 1 ` B $end
$var wire 1 ^ Y $end
$upscope $end
$scope module _099_ $end
$var wire 1 ^ A $end
$var wire 1 | B $end
$var wire 1 ] Y $end
$upscope $end
$scope module _100_ $end
$var wire 1 ] A $end
$var wire 1 b B $end
$var wire 1 \ Y $end
$upscope $end
$scope module _101_ $end
$var wire 1 \ A $end
$var wire 1 m B $end
$var wire 1 /" Y $end
$upscope $end
$scope module _102_ $end
$var wire 1 x A $end
$var wire 1 0" B $end
$var wire 1 [ Y $end
$upscope $end
$scope module _103_ $end
$var wire 1 1" A $end
$var wire 1 { B $end
$var wire 1 Z Y $end
$upscope $end
$scope module _104_ $end
$var wire 1 Z A $end
$var wire 1 2" B $end
$var wire 1 Y Y $end
$upscope $end
$scope module _105_ $end
$var wire 1 3" A $end
$var wire 1 X Y $end
$var wire 1 3 B $end
$upscope $end
$scope module _106_ $end
$var wire 1 u A $end
$var wire 1 4" B $end
$var wire 1 W Y $end
$upscope $end
$scope module _107_ $end
$var wire 1 W A $end
$var wire 1 X B $end
$var wire 1 V Y $end
$upscope $end
$scope module _108_ $end
$var wire 1 V A $end
$var wire 1 5" B $end
$var wire 1 U Y $end
$upscope $end
$scope module _109_ $end
$var wire 1 U A $end
$var wire 1 Y B $end
$var wire 1 T Y $end
$upscope $end
$scope module _110_ $end
$var wire 1 T A $end
$var wire 1 | B $end
$var wire 1 S Y $end
$upscope $end
$scope module _111_ $end
$var wire 1 S A $end
$var wire 1 [ B $end
$var wire 1 6" Y $end
$upscope $end
$scope module _112_ $end
$var wire 1 x A $end
$var wire 1 7" B $end
$var wire 1 R Y $end
$upscope $end
$scope module _113_ $end
$var wire 1 Z A $end
$var wire 1 8" B $end
$var wire 1 Q Y $end
$upscope $end
$scope module _114_ $end
$var wire 1 9" B $end
$var wire 1 P Y $end
$var wire 1 3 A $end
$upscope $end
$scope module _115_ $end
$var wire 1 :" A $end
$var wire 1 u B $end
$var wire 1 O Y $end
$upscope $end
$scope module _116_ $end
$var wire 1 O A $end
$var wire 1 P B $end
$var wire 1 N Y $end
$upscope $end
$scope module _117_ $end
$var wire 1 N A $end
$var wire 1 ;" B $end
$var wire 1 M Y $end
$upscope $end
$scope module _118_ $end
$var wire 1 M A $end
$var wire 1 Q B $end
$var wire 1 L Y $end
$upscope $end
$scope module _119_ $end
$var wire 1 L A $end
$var wire 1 | B $end
$var wire 1 K Y $end
$upscope $end
$scope module _120_ $end
$var wire 1 K A $end
$var wire 1 R B $end
$var wire 1 <" Y $end
$upscope $end
$scope module _121_ $end
$var wire 1 | A $end
$var wire 1 =" B $end
$var wire 1 J Y $end
$upscope $end
$scope module _122_ $end
$var wire 1 >" A $end
$var wire 1 u B $end
$var wire 1 I Y $end
$upscope $end
$scope module _123_ $end
$var wire 1 I A $end
$var wire 1 s B $end
$var wire 1 H Y $end
$upscope $end
$scope module _124_ $end
$var wire 1 H A $end
$var wire 1 l B $end
$var wire 1 G Y $end
$upscope $end
$scope module _125_ $end
$var wire 1 ?" A $end
$var wire 1 F Y $end
$upscope $end
$scope module _126_ $end
$var wire 1 g A $end
$var wire 1 F B $end
$var wire 1 E Y $end
$upscope $end
$scope module _127_ $end
$var wire 1 @" A $end
$var wire 1 A" B $end
$var wire 1 D Y $end
$upscope $end
$scope module _128_ $end
$var wire 1 D A $end
$var wire 1 B" B $end
$var wire 1 C Y $end
$upscope $end
$scope module _129_ $end
$var wire 1 C A $end
$var wire 1 E B $end
$var wire 1 B Y $end
$upscope $end
$scope module _130_ $end
$var wire 1 B A $end
$var wire 1 G B $end
$var wire 1 A Y $end
$upscope $end
$scope module _131_ $end
$var wire 1 a A $end
$var wire 1 u B $end
$var wire 1 @ Y $end
$upscope $end
$scope module _132_ $end
$var wire 1 I A $end
$var wire 1 q B $end
$var wire 1 ? Y $end
$upscope $end
$scope module _133_ $end
$var wire 1 ? A $end
$var wire 1 @ B $end
$var wire 1 > Y $end
$upscope $end
$scope module _134_ $end
$var wire 1 > A $end
$var wire 1 | B $end
$var wire 1 = Y $end
$upscope $end
$scope module _135_ $end
$var wire 1 = A $end
$var wire 1 A B $end
$var wire 1 < Y $end
$upscope $end
$scope module _136_ $end
$var wire 1 < A $end
$var wire 1 J B $end
$var wire 1 C" Y $end
$upscope $end
$scope module _137_ $end
$var wire 1 D" D $end
$var wire 1 5 C $end
$var reg 1 E" Q $end
$upscope $end
$scope module _138_ $end
$var wire 1 F" D $end
$var wire 1 5 C $end
$var reg 1 G" Q $end
$upscope $end
$scope module _139_ $end
$var wire 1 H" D $end
$var wire 1 5 C $end
$var reg 1 I" Q $end
$upscope $end
$scope module _140_ $end
$var wire 1 J" D $end
$var wire 1 5 C $end
$var reg 1 K" Q $end
$upscope $end
$scope module _141_ $end
$var wire 1 } D $end
$var wire 1 5 C $end
$var reg 1 , Q $end
$upscope $end
$upscope $end
$scope module Tester_1 $end
$var reg 1 5 CLK $end
$var reg 4 L" D [3:0] $end
$var reg 1 3 DIR $end
$var reg 1 2 ENB $end
$var reg 2 M" MODE [1:0] $end
$var reg 1 * S_IN $end
$upscope $end
$scope module compaQ $end
$var wire 4 N" QC [3:0] $end
$var wire 4 O" QE [3:0] $end
$var reg 1 . QR $end
$upscope $end
$scope module compaS $end
$var wire 1 ( SC $end
$var wire 1 , SE $end
$var reg 1 + SR $end
$upscope $end
$upscope $end
$enddefinitions $end
#0
$dumpvars
bx O"
bx N"
b10 M"
b1000 L"
xK"
1J"
xI"
0H"
xG"
0F"
xE"
0D"
1C"
0B"
1A"
x@"
1?"
x>"
x="
0<"
1;"
x:"
x9"
08"
x7"
06"
15"
x4"
x3"
02"
11"
x0"
0/"
0."
1-"
x,"
0+"
0*"
x)"
1("
x'"
0&"
1%"
x$"
x#"
1""
0!"
b1000 ~
0}
0|
1{
0z
0y
1x
0w
1v
1u
xt
1s
xr
0q
1p
0o
1n
1m
0l
1k
xj
1i
1h
1g
0f
xe
1d
1c
0b
1a
0`
1_
0^
1]
1\
0[
0Z
1Y
1X
xW
xV
0U
0T
1S
0R
1Q
1P
xO
xN
0M
0L
1K
1J
xI
xH
1G
0F
1E
xD
1C
0B
1A
0@
1?
0>
1=
0<
b1000 ;
b10 :
bx 9
bx 8
b1000 7
b10 6
05
b1000 4
03
12
b10 1
bx 0
bx /
x.
x-
x,
0+
0*
z)
z(
x'
z&
z%
z$
z#
z"
z!
$end
#4000
0V
0N
0H
1r
1j
1W
1e
1O
1I
0D
0t
04"
0,"
0'"
0$"
0:"
00"
0)"
0>"
07"
03"
1@"
1="
19"
1#"
1.
b1000 0
b1000 8
b1000 N"
0-
0E"
0G"
0I"
b1000 /
b1000 9
b1000 O"
1K"
0,
15
#8000
1D"
0J"
1/"
b1 ~
0C"
0\
1<
1}
1b
0=
0n
0c
1>
1o
1f
0Y
0Q
0_
0?
0p
0g
1D
1M
1U
1Z
1q
1`
1z
0A"
0;"
05"
01"
0-"
0("
0%"
0""
0a
05
b0 1
b0 6
b0 :
b0 M"
1*
#12000
1F"
b11 ~
16"
0S
0}
1T
1n
0U
0r
0j
1V
1t
0W
0@"
0="
09"
0#"
14"
1,"
1'"
1$"
1,
0K"
b1 /
b1 9
b1 O"
1E"
1-
b1 0
b1 8
b1 N"
15
#16000
05
#20000
1H"
b111 ~
1<"
0K
1L
0M
1N
0O
1:"
10"
1)"
0-
b11 0
b11 8
b11 N"
b11 /
b11 9
b11 O"
1G"
0,
15
#24000
05
#28000
1J"
b1111 ~
1C"
0<
1=
0>
1H
1?
0I
1>"
17"
13"
b111 /
b111 9
b111 O"
1I"
b111 0
b111 8
b111 N"
15
#32000
05
#36000
1}
0n
1r
1j
0t
1@"
1="
19"
1#"
b1111 0
b1111 8
b1111 N"
b1111 /
b1111 9
b1111 O"
1K"
15
#40000
0D"
0/"
0F"
0H"
1\
06"
b1000 ~
0<"
0}
0b
1S
1K
1n
1c
0T
0L
0o
0f
1Y
1Q
1_
1p
1g
0D
0Z
0e
0q
0z
1A"
1;"
15"
11"
1-"
1("
1%"
1""
05
b10 1
b10 6
b10 :
b10 M"
#44000
0H
0N
0V
1I
1O
1W
1e
0>"
07"
03"
0:"
00"
0)"
04"
0,"
0'"
0$"
0I"
0G"
b1000 /
b1000 9
b1000 O"
0E"
b1000 0
b1000 8
b1000 N"
15
#48000
0J"
0C"
1H"
b100 ~
1<"
1<
1b
0K
0]
0=
0c
1L
1^
1>
1o
1f
0Y
0Q
0_
0?
0r
0j
0p
0g
1N
1D
0M
1U
1Z
1q
1t
1z
0P
0`
0A"
0;"
05"
01"
0-"
0("
0%"
0""
1a
0u
05
b0 1
b0 6
b0 :
b0 M"
0*
13
#52000
1F"
0H"
16"
b10 ~
0<"
0S
1K
1T
0L
0U
1M
1V
0N
0X
1P
1>"
17"
13"
0@"
0="
09"
0#"
b100 0
b100 8
b100 N"
1I"
b100 /
b100 9
b100 O"
0K"
15
#56000
05
#60000
0F"
1D"
06"
b1 ~
1/"
1S
0\
0T
1]
1U
0^
0V
1j
1_
1X
0k
0>"
07"
03"
1:"
10"
1)"
0I"
b10 /
b10 9
b10 O"
1G"
b10 0
b10 8
b10 N"
15
#64000
05
#68000
0D"
b0 ~
0/"
1\
1}
0]
0n
1^
1r
1H
0j
0_
0s
1k
14"
1,"
1'"
1$"
0:"
00"
0)"
b1 0
b1 8
b1 N"
1E"
b1 /
b1 9
b1 O"
0G"
15
#72000
05
#76000
0}
1n
0r
0H
1s
04"
0,"
0'"
0$"
1,
b0 /
b0 9
b0 O"
0E"
1-
b0 0
b0 8
b0 N"
15
#80000
1=
0A
0b
0>
1]
0o
1B
1c
1_
1?
0^
1p
1l
0C
0d
0q
1`
0{
1B"
1."
1+"
1&"
1!"
0a
1u
05
b1 1
b1 6
b1 :
b1 M"
1*
03
#84000
0-
0,
15
#88000
05
#92000
15
#96000
05
#100000
15
#104000
05
#108000
15
#112000
1J"
0D"
1C"
0/"
0H"
0F"
0<
0<"
b1000 ~
06"
1\
1A
1K
1S
0b
0B
0L
0T
1Y
1Q
1c
0f
1C
0M
0U
0Z
1d
1g
0l
0z
1{
0B"
1A"
1;"
15"
11"
0."
1-"
0+"
1("
0&"
1%"
1""
0!"
05
b10 1
b10 6
b10 :
b10 M"
#116000
1r
1j
0D
0t
1@"
1="
19"
1#"
b1000 0
b1000 8
b1000 N"
b1000 /
b1000 9
b1000 O"
1K"
15
#120000
0J"
0C"
1H"
0D"
1<
1<"
b100 ~
0/"
0A
0K
1\
1B
1L
0b
0C
0Y
0Q
1f
1i
0r
0j
1N
1D
0M
1U
1Z
0d
0g
1l
1t
1@
1z
0{
0P
0`
1B"
0A"
0;"
05"
01"
1."
0-"
1+"
0("
1&"
0%"
0""
1!"
0u
05
b1 1
b1 6
b1 :
b1 M"
13
#124000
0H"
1F"
0<"
b10 ~
16"
1K
0S
0L
1T
1M
0U
0N
1V
1P
0X
0@"
0="
09"
0#"
1>"
17"
13"
0K"
b100 /
b100 9
b100 O"
1I"
b100 0
b100 8
b100 N"
15
#128000
05
#132000
1D"
0F"
1/"
b1 ~
06"
0\
1S
1b
0T
0i
1U
1j
0V
0k
1X
1:"
10"
1)"
0>"
07"
03"
b10 0
b10 8
b10 N"
1G"
b10 /
b10 9
b10 O"
0I"
15
#136000
05
#140000
0D"
1J"
0/"
b1000 ~
1C"
1\
0<
0b
1A
1i
0G
0j
1r
1H
1k
0s
0:"
00"
0)"
14"
1,"
1'"
1$"
0G"
b1 /
b1 9
b1 O"
1E"
b1 0
b1 8
b1 N"
15
#144000
05
#148000
0J"
1H"
0C"
b100 ~
1<"
1<
0K
0A
1L
1G
0M
0r
0H
1N
1s
0P
04"
0,"
0'"
0$"
1@"
1="
19"
1#"
b1000 0
b1000 8
b1000 N"
0E"
b1000 /
b1000 9
b1000 O"
1K"
15
