Tarea_8/Gray.vcd
$date
	Sun Nov 04 21:19:27 2018
$end
$version
	Icarus Verilog
$end
$timescale
	1s
$end
$scope module BUF $end
$var wire 1 ! A $end
$var wire 1 " Y $end
$upscope $end
$scope module DFFSR $end
$var wire 1 # C $end
$var wire 1 $ D $end
$var wire 1 % R $end
$var wire 1 & S $end
$var reg 1 ' Q $end
$upscope $end
$scope module contador_TB $end
$var wire 5 ( salida_gray_est [4:0] $end
$var wire 5 ) salida_gray_cond [4:0] $end
$var wire 1 * reset_L $end
$var wire 1 + enable $end
$var wire 1 , clk $end
$scope module Gray_cond $end
$var wire 5 - salida_gray [4:0] $end
$var wire 1 * reset_L $end
$var wire 1 + enable $end
$var wire 1 , clk $end
$var reg 5 . contador [4:0] $end
$upscope $end
$scope module Gray_est $end
$var wire 2 / xor_output_cnt [1:0] $end
$var wire 5 0 salida_gray [4:0] $end
$var wire 1 * reset_L $end
$var wire 1 + enable $end
$var wire 5 1 count [4:0] $end
$var wire 1 , clk $end
$var wire 1 2 _046_ $end
$var wire 1 3 _045_ $end
$var wire 1 4 _044_ $end
$var wire 1 5 _043_ $end
$var wire 1 6 _042_ $end
$var wire 1 7 _041_ $end
$var wire 1 8 _040_ $end
$var wire 1 9 _039_ $end
$var wire 1 : _038_ $end
$var wire 1 ; _037_ $end
$var wire 1 < _036_ $end
$var wire 1 = _035_ $end
$var wire 1 > _034_ $end
$var wire 1 ? _033_ $end
$var wire 1 @ _032_ $end
$var wire 1 A _031_ $end
$var wire 1 B _030_ $end
$var wire 1 C _029_ $end
$var wire 1 D _028_ $end
$var wire 1 E _027_ $end
$var wire 1 F _026_ $end
$var wire 1 G _025_ $end
$var wire 1 H _024_ $end
$var wire 1 I _023_ $end
$var wire 1 J _022_ $end
$var wire 1 K _021_ $end
$var wire 1 L _020_ $end
$var wire 1 M _019_ $end
$var wire 1 N _018_ $end
$var wire 1 O _017_ $end
$var wire 1 P _016_ $end
$var wire 1 Q _015_ $end
$var wire 1 R _014_ $end
$var wire 1 S _013_ $end
$var wire 1 T _012_ $end
$var wire 1 U _011_ $end
$var wire 1 V _010_ $end
$var wire 1 W _009_ $end
$var wire 1 X _008_ $end
$var wire 1 Y _007_ $end
$var wire 1 Z _006_ $end
$var wire 1 [ _005_ $end
$var wire 1 \ _004_ $end
$var wire 1 ] _003_ $end
$var wire 1 ^ _002_ $end
$var wire 2 _ _001_ [1:0] $end
$var wire 5 ` _000_ [4:0] $end
$scope module _047_ $end
$var wire 1 a A $end
$var wire 1 ^ Y $end
$upscope $end
$scope module _048_ $end
$var wire 1 b A $end
$var wire 1 ] Y $end
$upscope $end
$scope module _049_ $end
$var wire 1 c A $end
$var wire 1 \ Y $end
$upscope $end
$scope module _050_ $end
$var wire 1 d A $end
$var wire 1 [ Y $end
$upscope $end
$scope module _051_ $end
$var wire 1 e A $end
$var wire 1 Z Y $end
$upscope $end
$scope module _052_ $end
$var wire 1 f B $end
$var wire 1 Y Y $end
$var wire 1 + A $end
$upscope $end
$scope module _053_ $end
$var wire 1 Y A $end
$var wire 1 X Y $end
$upscope $end
$scope module _054_ $end
$var wire 1 [ A $end
$var wire 1 Z B $end
$var wire 1 W Y $end
$upscope $end
$scope module _055_ $end
$var wire 1 g A $end
$var wire 1 h B $end
$var wire 1 V Y $end
$upscope $end
$scope module _056_ $end
$var wire 1 X A $end
$var wire 1 W B $end
$var wire 1 U Y $end
$upscope $end
$scope module _057_ $end
$var wire 1 i A $end
$var wire 1 j B $end
$var wire 1 T Y $end
$upscope $end
$scope module _058_ $end
$var wire 1 T A $end
$var wire 1 S Y $end
$upscope $end
$scope module _059_ $end
$var wire 1 k A $end
$var wire 1 l B $end
$var wire 1 R Y $end
$upscope $end
$scope module _060_ $end
$var wire 1 [ A $end
$var wire 1 Y B $end
$var wire 1 Q Y $end
$upscope $end
$scope module _061_ $end
$var wire 1 m A $end
$var wire 1 n B $end
$var wire 1 P Y $end
$upscope $end
$scope module _062_ $end
$var wire 1 P A $end
$var wire 1 O Y $end
$upscope $end
$scope module _063_ $end
$var wire 1 ^ A $end
$var wire 1 U B $end
$var wire 1 N Y $end
$upscope $end
$scope module _064_ $end
$var wire 1 U A $end
$var wire 1 T B $end
$var wire 1 M Y $end
$upscope $end
$scope module _065_ $end
$var wire 1 o A $end
$var wire 1 N B $end
$var wire 1 L Y $end
$upscope $end
$scope module _066_ $end
$var wire 1 ] A $end
$var wire 1 L B $end
$var wire 1 K Y $end
$upscope $end
$scope module _067_ $end
$var wire 1 p A $end
$var wire 1 M B $end
$var wire 1 J Y $end
$upscope $end
$scope module _068_ $end
$var wire 1 ] A $end
$var wire 1 L B $end
$var wire 1 I Y $end
$upscope $end
$scope module _069_ $end
$var wire 1 I B $end
$var wire 1 H Y $end
$var wire 1 * A $end
$upscope $end
$scope module _070_ $end
$var wire 1 K A $end
$var wire 1 H B $end
$var wire 1 q Y $end
$upscope $end
$scope module _071_ $end
$var wire 1 \ A $end
$var wire 1 J B $end
$var wire 1 G Y $end
$upscope $end
$scope module _072_ $end
$var wire 1 \ A $end
$var wire 1 J B $end
$var wire 1 F Y $end
$upscope $end
$scope module _073_ $end
$var wire 1 F B $end
$var wire 1 E Y $end
$var wire 1 * A $end
$upscope $end
$scope module _074_ $end
$var wire 1 G A $end
$var wire 1 E B $end
$var wire 1 r Y $end
$upscope $end
$scope module _075_ $end
$var wire 1 s B $end
$var wire 1 D Y $end
$var wire 1 + A $end
$upscope $end
$scope module _076_ $end
$var wire 1 Y B $end
$var wire 1 C Y $end
$var wire 1 * A $end
$upscope $end
$scope module _077_ $end
$var wire 1 D A $end
$var wire 1 C B $end
$var wire 1 t Y $end
$upscope $end
$scope module _078_ $end
$var wire 1 [ A $end
$var wire 1 Y B $end
$var wire 1 B Y $end
$upscope $end
$scope module _079_ $end
$var wire 1 B B $end
$var wire 1 A Y $end
$var wire 1 * A $end
$upscope $end
$scope module _080_ $end
$var wire 1 Q A $end
$var wire 1 A B $end
$var wire 1 u Y $end
$upscope $end
$scope module _081_ $end
$var wire 1 v A $end
$var wire 1 Q B $end
$var wire 1 @ Y $end
$upscope $end
$scope module _082_ $end
$var wire 1 U B $end
$var wire 1 ? Y $end
$var wire 1 * A $end
$upscope $end
$scope module _083_ $end
$var wire 1 @ A $end
$var wire 1 ? B $end
$var wire 1 w Y $end
$upscope $end
$scope module _084_ $end
$var wire 1 ^ A $end
$var wire 1 U B $end
$var wire 1 > Y $end
$upscope $end
$scope module _085_ $end
$var wire 1 > B $end
$var wire 1 = Y $end
$var wire 1 * A $end
$upscope $end
$scope module _086_ $end
$var wire 1 N A $end
$var wire 1 = B $end
$var wire 1 x Y $end
$upscope $end
$scope module _087_ $end
$var wire 1 y A $end
$var wire 1 N B $end
$var wire 1 < Y $end
$upscope $end
$scope module _088_ $end
$var wire 1 L B $end
$var wire 1 ; Y $end
$var wire 1 * A $end
$upscope $end
$scope module _089_ $end
$var wire 1 < A $end
$var wire 1 ; B $end
$var wire 1 z Y $end
$upscope $end
$scope module _090_ $end
$var wire 1 { A $end
$var wire 1 | B $end
$var wire 1 : Y $end
$upscope $end
$scope module _091_ $end
$var wire 1 } A $end
$var wire 1 ~ B $end
$var wire 1 9 Y $end
$upscope $end
$scope module _092_ $end
$var wire 1 ] A $end
$var wire 1 !" B $end
$var wire 1 8 Y $end
$upscope $end
$scope module _093_ $end
$var wire 1 V A $end
$var wire 1 8 B $end
$var wire 1 7 Y $end
$upscope $end
$scope module _094_ $end
$var wire 1 9 A $end
$var wire 1 7 B $end
$var wire 1 6 Y $end
$upscope $end
$scope module _095_ $end
$var wire 1 6 A $end
$var wire 1 5 Y $end
$upscope $end
$scope module _096_ $end
$var wire 1 R A $end
$var wire 1 5 B $end
$var wire 1 4 Y $end
$upscope $end
$scope module _097_ $end
$var wire 1 : A $end
$var wire 1 4 B $end
$var wire 1 "" Y $end
$upscope $end
$scope module _098_ $end
$var wire 1 #" A $end
$var wire 1 $" B $end
$var wire 1 3 Y $end
$upscope $end
$scope module _099_ $end
$var wire 1 W A $end
$var wire 1 3 B $end
$var wire 1 %" Y $end
$upscope $end
$scope module _100_ $end
$var wire 1 &" A $end
$var wire 1 '" B $end
$var wire 1 2 Y $end
$upscope $end
$scope module _101_ $end
$var wire 1 O A $end
$var wire 1 2 B $end
$var wire 1 (" Y $end
$upscope $end
$scope module _102_ $end
$var wire 1 S A $end
$var wire 1 9 B $end
$var wire 1 )" Y $end
$upscope $end
$scope module _103_ $end
$var wire 1 *" D $end
$var wire 1 , C $end
$var reg 1 +" Q $end
$upscope $end
$scope module _104_ $end
$var wire 1 ," D $end
$var wire 1 , C $end
$var reg 1 -" Q $end
$upscope $end
$scope module _105_ $end
$var wire 1 ." D $end
$var wire 1 , C $end
$var reg 1 /" Q $end
$upscope $end
$scope module _106_ $end
$var wire 1 0" D $end
$var wire 1 , C $end
$var reg 1 1" Q $end
$upscope $end
$scope module _107_ $end
$var wire 1 2" D $end
$var wire 1 , C $end
$var reg 1 3" Q $end
$upscope $end
$scope module _108_ $end
$var wire 1 4" D $end
$var wire 1 , C $end
$var reg 1 5" Q $end
$upscope $end
$scope module _109_ $end
$var wire 1 6" D $end
$var wire 1 , C $end
$var reg 1 7" Q $end
$upscope $end
$upscope $end
$scope module T_1 $end
$var wire 5 8" salida_gray_cond [4:0] $end
$var wire 5 9" salida_gray_est [4:0] $end
$var reg 1 :" Comparador $end
$var reg 1 , clk $end
$var reg 1 ;" conductual $end
$var reg 1 + enable $end
$var reg 1 <" estructural $end
$var reg 1 * reset_L $end
$upscope $end
$upscope $end
$enddefinitions $end
#0
$dumpvars
0<"
0;"
x:"
bx 9"
bx 8"
x7"
06"
x5"
04"
x3"
02"
x1"
00"
x/"
0."
x-"
0,"
x+"
0*"
x)"
x("
x'"
x&"
x%"
x$"
x#"
x""
x!"
x~
x}
x|
x{
0z
xy
0x
0w
xv
0u
0t
xs
0r
0q
xp
xo
xn
xm
xl
xk
xj
xi
xh
xg
xf
xe
xd
xc
xb
xa
b0 `
b0 _
x^
x]
x\
x[
xZ
1Y
0X
xW
xV
1U
xT
xS
xR
0Q
xP
xO
0N
0M
1L
0K
1J
xI
1H
0G
xF
1E
xD
1C
xB
1A
x@
1?
x>
1=
x<
1;
x:
x9
x8
x7
x6
x5
x4
x3
x2
bx 1
bx 0
bx /
bx .
bx -
1,
0+
0*
bx )
bx (
x'
z&
z%
z$
z#
z"
z!
$end
#1
0,
#2
05
16
0""
04
0%"
0("
0)"
07
0B
0W
0O
0>
0S
0I
0F
1D
1:
1R
13
1@
1V
12
1P
19
1<
1T
18
1[
1Z
1^
1]
1\
b0 )
b0 -
b0 8"
0{
0s
0k
0f
0#"
0|
0l
0g
0d
0'"
0$"
0v
0n
0h
0e
0&"
0}
0m
0i
0a
b0 (
b0 0
b0 9"
0~
0y
0o
0j
0p
0b
0!"
0c
x;"
x<"
b0 .
0+"
0-"
0/"
01"
b0 1
03"
05"
b0 /
07"
1,
#3
0,
#4
0;"
0<"
1,
#5
0,
#6
1,
#7
0,
#8
1,
#9
0,
#10
0;
0?
0C
1,
1*
#11
0,
#12
1,
#13
0,
#14
1,
#15
1*"
b1 `
1t
0D
0,
1+
#16
1,"
1u
0*"
b10 `
0t
0A
b1 (
b1 0
b1 9"
1""
1C
1B
1X
0:
0Y
b1 )
b1 -
b1 8"
1{
1s
1k
1f
b1 1
1+"
b1 .
1,
#17
0,
#18
0."
1*"
0w
1t
1,"
b11 `
1u
1@
0C
b11 (
b11 0
b11 9"
1%"
0X
0Q
1Y
03
b11 )
b11 -
b11 8"
0[
0{
0s
0k
0f
1#"
1|
1l
1g
1d
1;"
1<"
b10 .
0+"
b10 1
1-"
1,
#19
0,
#20
1."
1w
0,"
0*"
b10 (
b10 0
b10 9"
0""
0u
0@
b100 `
0t
14
1Q
1C
1X
0R
0Y
b10 )
b10 -
b10 8"
1{
1s
1k
1f
b11 1
1+"
b11 .
1,
#21
0,
#22
1*"
1t
1A
0,"
b101 `
0u
0C
0B
04
b110 (
b110 0
b110 9"
1("
0X
0Q
1Y
1:
1R
02
b110 )
b110 -
b110 8"
1[
0Z
0{
0s
0k
0f
0#"
0|
0l
0g
0d
1'"
1$"
1v
1n
1h
1e
0;"
0<"
b100 .
0+"
0-"
b100 1
1/"
1,
#23
0,
#24
1,"
1u
0*"
b110 `
0t
0A
b111 (
b111 0
b111 9"
1""
1C
1B
1X
0:
0Y
b111 )
b111 -
b111 8"
1{
1s
1k
1f
b101 1
1+"
b101 .
1,
#25
0,
#26
1*"
1t
1,"
b101 (
b101 0
b101 9"
0%"
b111 `
1u
0C
0X
1W
0Q
1Y
0V
b101 )
b101 -
b101 8"
0[
0{
0s
0k
0f
1#"
1|
1l
1g
1d
1;"
1<"
b110 .
0+"
b110 1
1-"
1,
#27
0,
#28
10"
1x
0."
0w
0=
1?
1>
0,"
0*"
b100 (
b100 0
b100 9"
0""
0u
b1000 `
0t
0U
14
1Q
1C
1X
0R
0Y
b100 )
b100 -
b100 8"
1{
1s
1k
1f
b111 1
1+"
b111 .
1,
#29
0,
#30
02"
1*"
0?
0z
1t
1A
0,"
10"
0u
1@
1U
b1001 `
1x
1<
0C
0B
04
b1100 (
b1100 0
b1100 9"
1)"
0X
0Q
0W
0N
1Y
1:
1R
13
1V
09
b1100 )
b1100 -
b1100 8"
1[
1Z
0^
0{
0s
0k
0f
0#"
0|
0l
0g
0d
0'"
0$"
0v
0n
0h
0e
1&"
1}
1m
1i
1a
0;"
0<"
b1000 .
0+"
0-"
0/"
b1000 1
11"
1,
#31
0,
#32
1,"
1u
0*"
b1010 `
0t
0A
b1101 (
b1101 0
b1101 9"
1""
1C
1B
1X
0:
0Y
b1101 )
b1101 -
b1101 8"
1{
1s
1k
1f
b1001 1
1+"
b1001 .
1,
#33
0,
#34
0."
1*"
0w
1t
1,"
b1011 `
1u
1@
0C
b1111 (
b1111 0
b1111 9"
1%"
0X
0Q
1Y
03
b1111 )
b1111 -
b1111 8"
0[
0{
0s
0k
0f
1#"
1|
1l
1g
1d
1;"
1<"
b1010 .
0+"
b1010 1
1-"
1,
#35
0,
#36
1."
1w
0,"
0*"
b1110 (
b1110 0
b1110 9"
0""
0u
0@
b1100 `
0t
14
1Q
1C
1X
0R
0Y
b1110 )
b1110 -
b1110 8"
1{
1s
1k
1f
b1011 1
1+"
b1011 .
1,
#37
0,
#38
1*"
1t
1A
0,"
b1101 `
0u
b1010 (
b1010 0
b1010 9"
0("
0C
0B
04
0X
0Q
1O
1Y
1:
1R
0P
b1010 )
b1010 -
b1010 8"
1[
0Z
0{
0s
0k
0f
0#"
0|
0l
0g
0d
1'"
1$"
1v
1n
1h
1e
0;"
0<"
b1100 .
0+"
0-"
b1100 1
1/"
1,
#39
0,
#40
1,"
1u
0*"
b1110 `
0t
0A
b1011 (
b1011 0
b1011 9"
1""
1C
1B
1X
0:
0Y
b1011 )
b1011 -
b1011 8"
1{
1s
1k
1f
b1101 1
1+"
b1101 .
1,
#41
0,
#42
1*"
1t
1,"
b1001 (
b1001 0
b1001 9"
0%"
b1111 `
1u
0C
0X
1W
0Q
1Y
0V
b1001 )
b1001 -
b1001 8"
0[
0{
0s
0k
0f
1#"
1|
1l
1g
1d
1;"
1<"
b1110 .
0+"
b1110 1
1-"
1,
#43
0,
#44
12"
1z
00"
0."
0x
0<
0w
1N
1?
0,"
0*"
b1000 (
b1000 0
b1000 9"
0""
0u
b10000 `
0t
0U
14
1Q
1C
1X
0R
0Y
b1000 )
b1000 -
b1000 8"
1{
1s
1k
1f
b1111 1
1+"
b1111 .
1,
#45
0,
#46
1=
04"
b0 _
0q
1*"
0?
0>
12"
1t
1A
0,"
00"
1H
1z
0u
1@
1U
b10001 `
0x
0C
0B
04
0I
0;
0X
0Q
0W
0O
0N
1Y
1:
1R
13
1V
12
1P
1L
1[
1Z
1^
b11000 )
b11000 -
b11000 8"
0{
0s
0k
0f
0#"
0|
0l
0g
0d
0'"
0$"
0v
0n
0h
0e
0&"
0}
0m
0i
0a
b11000 (
b11000 0
b11000 9"
1~
1y
1o
1j
0;"
0<"
b10000 .
0+"
0-"
0/"
01"
b10000 1
13"
1,
#47
0,
#48
1,"
1u
0*"
b10010 `
0t
0A
b11001 (
b11001 0
b11001 9"
1""
1C
1B
1X
0:
0Y
b11001 )
b11001 -
b11001 8"
1{
1s
1k
1f
b10001 1
1+"
b10001 .
1,
#49
0,
#50
0."
1*"
0w
1t
1,"
b10011 `
1u
1@
0C
b11011 (
b11011 0
b11011 9"
1%"
0X
0Q
1Y
03
b11011 )
b11011 -
b11011 8"
0[
0{
0s
0k
0f
1#"
1|
1l
1g
1d
1;"
1<"
b10010 .
0+"
b10010 1
1-"
1,
#51
0,
#52
1."
1w
0,"
0*"
b11010 (
b11010 0
b11010 9"
0""
0u
0@
b10100 `
0t
14
1Q
1C
1X
0R
0Y
b11010 )
b11010 -
b11010 8"
1{
1s
1k
1f
b10011 1
1+"
b10011 .
1,
#53
0,
#54
1*"
1t
1A
0,"
b10101 `
0u
0C
0B
04
b11110 (
b11110 0
b11110 9"
1("
0X
0Q
1Y
1:
1R
02
b11110 )
b11110 -
b11110 8"
1[
0Z
0{
0s
0k
0f
0#"
0|
0l
0g
0d
1'"
1$"
1v
1n
1h
1e
0;"
0<"
b10100 .
0+"
0-"
b10100 1
1/"
1,
#55
0,
#56
1,"
1u
0*"
b10110 `
0t
0A
b11111 (
b11111 0
b11111 9"
1""
1C
1B
1X
0:
0Y
b11111 )
b11111 -
b11111 8"
1{
1s
1k
1f
b10101 1
1+"
b10101 .
1,
#57
0,
#58
1*"
1t
1,"
b11101 (
b11101 0
b11101 9"
0%"
b10111 `
1u
0C
0X
1W
0Q
1Y
0V
b11101 )
b11101 -
b11101 8"
0[
0{
0s
0k
0f
1#"
1|
1l
1g
1d
1;"
1<"
b10110 .
0+"
b10110 1
1-"
1,
#59
0,
#60
10"
1x
0."
0w
0=
1?
1>
0,"
0*"
b11100 (
b11100 0
b11100 9"
0""
0u
b11000 `
0t
0U
14
1Q
1C
1X
0R
0Y
b11100 )
b11100 -
b11100 8"
1{
1s
1k
1f
b10111 1
1+"
b10111 .
1,
#61
0,
#62
04"
b0 _
0q
12"
1H
1z
1*"
0?
0I
0;
1t
1A
0,"
10"
0u
1@
1U
b10100 (
b10100 0
b10100 9"
0)"
1L
b11001 `
1x
0C
0B
04
0M
0X
0Q
0W
1S
0N
1Y
1:
1R
13
1V
0T
b10100 )
b10100 -
b10100 8"
1[
1Z
0^
0{
0s
0k
0f
0#"
0|
0l
0g
0d
0'"
0$"
0v
0n
0h
0e
1&"
1}
1m
1i
1a
0;"
0<"
b11000 .
0+"
0-"
0/"
b11000 1
11"
1,
#63
0,
#64
1,"
1u
0*"
b11010 `
0t
0A
b10101 (
b10101 0
b10101 9"
1""
1C
1B
1X
0:
0Y
b10101 )
b10101 -
b10101 8"
1{
1s
1k
1f
b11001 1
1+"
b11001 .
1,
#65
0,
#66
0."
1*"
0w
1t
1,"
b11011 `
1u
1@
0C
b10111 (
b10111 0
b10111 9"
1%"
0X
0Q
1Y
03
b10111 )
b10111 -
b10111 8"
0[
0{
0s
0k
0f
1#"
1|
1l
1g
1d
1;"
1<"
b11010 .
0+"
b11010 1
1-"
1,
#67
0,
#68
1."
1w
0,"
0*"
b10110 (
b10110 0
b10110 9"
0""
0u
0@
b11100 `
0t
14
1Q
1C
1X
0R
0Y
b10110 )
b10110 -
b10110 8"
1{
1s
1k
1f
b11011 1
1+"
b11011 .
1,
#69
0,
#70
1*"
1t
1A
0,"
b11101 `
0u
b10010 (
b10010 0
b10010 9"
0("
0C
0B
04
0X
0Q
1O
1Y
1:
1R
0P
b10010 )
b10010 -
b10010 8"
1[
0Z
0{
0s
0k
0f
0#"
0|
0l
0g
0d
1'"
1$"
1v
1n
1h
1e
0;"
0<"
b11100 .
0+"
0-"
b11100 1
1/"
1,
#71
0,
#72
1,"
1u
0*"
b11110 `
0t
0A
b10011 (
b10011 0
b10011 9"
1""
1C
1B
1X
0:
0Y
b10011 )
b10011 -
b10011 8"
1{
1s
1k
1f
b11101 1
1+"
b11101 .
1,
#73
0,
#74
1*"
1t
1,"
b10001 (
b10001 0
b10001 9"
0%"
b11111 `
1u
0C
0X
1W
0Q
1Y
0V
b10001 )
b10001 -
b10001 8"
0[
0{
0s
0k
0f
1#"
1|
1l
1g
1d
1;"
1<"
b11110 .
0+"
b11110 1
1-"
1,
#75
0,
#76
14"
b1 _
1q
02"
0H
0z
1I
1;
00"
0."
0L
0x
0w
1N
1M
1?
0,"
0*"
b10000 (
b10000 0
b10000 9"
0""
0u
b0 `
0t
0U
14
1Q
1C
1X
0R
0Y
b10000 )
b10000 -
b10000 8"
1{
1s
1k
1f
b11111 1
1+"
b11111 .
1,
#77
0,
#78
1=
06"
0r
1*"
0?
0>
02"
1t
1A
0,"
00"
0z
1E
14"
0u
1@
1U
b1 `
0x
1<
b1 _
1q
0C
0B
04
0;
0M
0F
0X
0Q
0W
0O
0N
0S
0K
1Y
1:
1R
13
1V
12
1P
19
1L
1T
1J
1[
1Z
1^
0]
b0 )
b0 -
b0 8"
0{
0s
0k
0f
0#"
0|
0l
0g
0d
0'"
0$"
0v
0n
0h
0e
0&"
0}
0m
0i
0a
b0 (
b0 0
b0 9"
0~
0y
0o
0j
1p
1b
0;"
0<"
b0 .
0+"
0-"
0/"
01"
b0 1
03"
b1 /
15"
1,
#79
0,
#80
1,"
1u
0*"
b10 `
0t
0A
b1 (
b1 0
b1 9"
1""
1C
1B
1X
0:
0Y
b1 )
b1 -
b1 8"
1{
1s
1k
1f
b1 1
1+"
b1 .
1,
#81
0,
#82
0."
1*"
0w
1t
1,"
b11 `
1u
1@
0C
b11 (
b11 0
b11 9"
1%"
0X
0Q
1Y
03
b11 )
b11 -
b11 8"
0[
0{
0s
0k
0f
1#"
1|
1l
1g
1d
1;"
1<"
b10 .
0+"
b10 1
1-"
1,
#83
0,
#84
1."
1w
0,"
0*"
b10 (
b10 0
b10 9"
0""
0u
0@
b100 `
0t
14
1Q
1C
1X
0R
0Y
b10 )
b10 -
b10 8"
1{
1s
1k
1f
b11 1
1+"
b11 .
1,
#85
0,
#86
1*"
1t
1A
0,"
b101 `
0u
0C
0B
04
b110 (
b110 0
b110 9"
1("
0X
0Q
1Y
1:
1R
02
b110 )
b110 -
b110 8"
1[
0Z
0{
0s
0k
0f
0#"
0|
0l
0g
0d
1'"
1$"
1v
1n
1h
1e
0;"
0<"
b100 .
0+"
0-"
b100 1
1/"
1,
#87
0,
#88
1,"
1u
0*"
b110 `
0t
0A
b111 (
b111 0
b111 9"
1""
1C
1B
1X
0:
0Y
b111 )
b111 -
b111 8"
1{
1s
1k
1f
b101 1
1+"
b101 .
1,
#89
0,
#90
1*"
1t
1,"
b101 (
b101 0
b101 9"
0%"
b111 `
1u
0C
0X
1W
0Q
1Y
0V
b101 )
b101 -
b101 8"
0[
0{
0s
0k
0f
1#"
1|
1l
1g
1d
1;"
1<"
b110 .
0+"
b110 1
1-"
1,
#91
0,
#92
10"
1x
0."
0w
0=
1?
1>
0,"
0*"
b100 (
b100 0
b100 9"
0""
0u
b1000 `
0t
0U
14
1Q
1C
1X
0R
0Y
b100 )
b100 -
b100 8"
1{
1s
1k
1f
b111 1
1+"
b111 .
1,
#93
0,
#94
02"
1*"
0?
0z
1t
1A
0,"
10"
0u
1@
1U
b1001 `
1x
1<
0C
0B
04
b1100 (
b1100 0
b1100 9"
1)"
0X
0Q
0W
0N
1Y
1:
1R
13
1V
09
b1100 )
b1100 -
b1100 8"
1[
1Z
0^
0{
0s
0k
0f
0#"
0|
0l
0g
0d
0'"
0$"
0v
0n
0h
0e
1&"
1}
1m
1i
1a
0;"
0<"
b1000 .
0+"
0-"
0/"
b1000 1
11"
1,
#95
0,
#96
1,"
1u
0*"
b1010 `
0t
0A
b1101 (
b1101 0
b1101 9"
1""
1C
1B
1X
0:
0Y
b1101 )
b1101 -
b1101 8"
1{
1s
1k
1f
b1001 1
1+"
b1001 .
1,
#97
0,
#98
0."
1*"
0w
1t
1,"
b1011 `
1u
1@
0C
b1111 (
b1111 0
b1111 9"
1%"
0X
0Q
1Y
03
b1111 )
b1111 -
b1111 8"
0[
0{
0s
0k
0f
1#"
1|
1l
1g
1d
1;"
1<"
b1010 .
0+"
b1010 1
1-"
1,
#99
0,
#100
1."
1w
0,"
0*"
b1110 (
b1110 0
b1110 9"
0""
0u
0@
b1100 `
0t
14
1Q
1C
1X
0R
0Y
b1110 )
b1110 -
b1110 8"
1{
1s
1k
1f
b1011 1
1+"
b1011 .
1,
